<?xml version="1.0" encoding="UTF-8"?>
<CustomTab xmlns="http://soap.sforce.com/2006/04/metadata">
    <description>Created by Lightning App Builder</description>
    <flexiPage>Search_Results</flexiPage>
    <label>Search Results</label>
    <motif>Custom98: Truck</motif>
</CustomTab>
