{
  "appPageId" : "c7c0166b-b864-43df-a9f1-89835dbe9b80",
  "componentName" : "community_layout:sldsFlexibleLayout",
  "id" : "0febd587-2585-454e-9f8c-1cb2056b5cc0",
  "label" : "Error",
  "regions" : [ {
    "components" : [ {
      "componentAttributes" : {
        "sectionConfig" : "{\"UUID\":\"b966a16a-232a-4972-b879-4cde4c83f6e7\",\"columns\":[{\"UUID\":\"019337d3-f1bd-4d0a-baee-d6ae2647b788\",\"columnName\":\"Column 1\",\"columnKey\":\"col1\",\"columnWidth\":\"12\",\"seedComponents\":null}]}"
      },
      "componentName" : "community_layout:section",
      "id" : "b966a16a-232a-4972-b879-4cde4c83f6e7",
      "regions" : [ {
        "components" : [ {
          "componentAttributes" : {
            "richTextValue" : "<p style=\"text-align: center;\">Invalid Page</p>"
          },
          "componentName" : "community_builder:richTextEditor",
          "id" : "82dbf11b-1242-4815-b214-8b91697583d0",
          "renderPriority" : "NEUTRAL",
          "renditionMap" : { },
          "type" : "component"
        } ],
        "id" : "019337d3-f1bd-4d0a-baee-d6ae2647b788",
        "regionLabel" : "Column 1",
        "regionName" : "col1",
        "renditionMap" : { },
        "type" : "region"
      } ],
      "renderPriority" : "NEUTRAL",
      "renditionMap" : { },
      "scopedBrandingSetId" : null,
      "type" : "component"
    } ],
    "id" : "2683f75c-e53e-4547-a693-a9de909e7a1e",
    "regionName" : "content",
    "type" : "region"
  }, {
    "components" : [ {
      "componentAttributes" : {
        "customHeadTags" : "",
        "description" : "",
        "pageTitle" : "Error",
        "recordId" : "{!recordId}"
      },
      "componentName" : "community_builder:seoAssistant",
      "id" : "155f6c94-e919-44be-97fc-acb7bad14684",
      "renderPriority" : "NEUTRAL",
      "renditionMap" : { },
      "type" : "component"
    } ],
    "id" : "3cfdf3ac-b158-4d96-b0e4-4f0e4882554b",
    "regionName" : "sfdcHiddenRegion",
    "type" : "region"
  } ],
  "themeLayoutType" : "Inner",
  "type" : "view",
  "viewType" : "error"
}