{
  "activeViewId" : "5527fef9-fe79-44f5-b4b7-f9953e27cf1b",
  "appPageId" : "c7c0166b-b864-43df-a9f1-89835dbe9b80",
  "configurationTags" : [ ],
  "id" : "63677cca-9a41-44e4-b4b0-051a5eb9a434",
  "label" : "Home",
  "routeType" : "home",
  "type" : "route",
  "urlPrefix" : ""
}